…
  Parameter 'eta' has been renamed to 'learning_rate'. This warning will become an error in a future version.
> 
> xgb.save(model, model_path)
[1] TRUE
> 
> model <- cuda_ml_fil_load_model(
+   model_path,
+   mode = "regression",
+   model_type = "xgboost"
+ )
> 
> preds <- predict(model, mtcars[names(mtcars) != "mpg"])
> 
> print(preds)
# A tibble: 32 × 1
   .pred
   <dbl>
 1     1
 2     1
 3     1
 4     1
 5     1
 6     1
 7     1
 8     1
 9     1
10     1
# ℹ 22 more rows
…
